<svg width="24px" height="30px" viewBox="0 0 24 30" version="1.1" xmlns="http://www.w3.org/2000/svg" xmlns:xlink="http://www.w3.org/1999/xlink">
    <g stroke="none" stroke-width="1" fill="none" fill-rule="evenodd">
        <g transform="translate(-290.000000, -268.000000)" fill="#000000" fill-rule="nonzero">
            <g transform="translate(290.000000, 268.000000)">
                <path d="M20.5048544,3.7265625 C18.2563107,1.32421875 15.2912621,0 12.1514563,0 C5.46990291,0 0.0291262136,5.63671875 0.0291262136,12.5625 C0.0291262136,16.9628906 3.3961165,21.9257812 4.84660194,23.8535156 C6.97864078,26.6894531 10.1708738,30 12.1514563,30 C14.5747573,30 18.7281553,24.4804687 19.1941748,23.8476562 C20.6271845,21.9082031 23.9708738,16.9160156 23.9708738,12.5625 C23.9708738,9.25195312 22.7417476,6.11132812 20.5048544,3.7265625 Z M12.1514563,28.9394531 C9.67572816,28.9394531 1.08349515,19.1367187 1.08349515,12.5683594 C1.08349515,6.27539062 5.97087379,1.06640625 12.1514563,1.06640625 C18.023301,1.06640625 22.9106796,6.28125 22.9106796,12.5683594 C22.9165049,19.1367188 14.3242718,28.9394531 12.1514563,28.9394531 Z M18.6407767,12.1171875 C18.6407767,15.5800781 15.6640777,18.5449219 12.1864078,18.5449219 C6.32621359,18.5449219 3.40776699,12.2050781 6.77475728,7.89257812 L6.77475728,7.91601562 C6.77475728,9.3515625 7.94563107,10.5175781 9.38446602,10.5175781 C10.823301,10.5175781 11.9941748,9.3515625 11.9941748,7.91601562 C11.9941748,6.84960937 11.3475728,5.93554687 10.4271845,5.53125 C14.8893204,4.40625 18.6407767,7.83398437 18.6407767,12.1171875 Z"></path>
            </g>
        </g>
    </g>
</svg>