<svg width="30px" height="30px" viewBox="0 0 30 30" version="1.1" xmlns="http://www.w3.org/2000/svg" xmlns:xlink="http://www.w3.org/1999/xlink">
    <g stroke="none" stroke-width="1" fill="none" fill-rule="evenodd">
        <g transform="translate(-80.000000, -268.000000)" fill="#000000" fill-rule="nonzero">
            <g transform="translate(80.000000, 268.000000)">
                <path d="M6.30267857,18.9575893 C6.30267857,20.6919643 4.88571429,22.1089286 3.15133929,22.1089286 C1.41696429,22.1089286 0,20.6919643 0,18.9575893 C0,17.2232143 1.41696429,15.80625 3.15133929,15.80625 L6.30267857,15.80625 L6.30267857,18.9575893 Z M7.89107143,18.9575893 C7.89107143,17.2232143 9.30803571,15.80625 11.0424107,15.80625 C12.7767857,15.80625 14.19375,17.2232143 14.19375,18.9575893 L14.19375,26.8486607 C14.19375,28.5830357 12.7767857,30 11.0424107,30 C9.30803571,30 7.89107143,28.5830357 7.89107143,26.8486607 L7.89107143,18.9575893 Z M11.0424107,6.30267857 C9.30803571,6.30267857 7.89107143,4.88571429 7.89107143,3.15133929 C7.89107143,1.41696429 9.30803571,0 11.0424107,0 C12.7767857,0 14.19375,1.41696429 14.19375,3.15133929 L14.19375,6.30267857 L11.0424107,6.30267857 L11.0424107,6.30267857 Z M11.0424107,7.89107143 C12.7767857,7.89107143 14.19375,9.30803571 14.19375,11.0424107 C14.19375,12.7767857 12.7767857,14.19375 11.0424107,14.19375 L3.15133929,14.19375 C1.41696429,14.19375 0,12.7767857 0,11.0424107 C0,9.30803571 1.41696429,7.89107143 3.15133929,7.89107143 L11.0424107,7.89107143 L11.0424107,7.89107143 Z M23.6973214,11.0424107 C23.6973214,9.30803571 25.1142857,7.89107143 26.8486607,7.89107143 C28.5830357,7.89107143 30,9.30803571 30,11.0424107 C30,12.7767857 28.5830357,14.19375 26.8486607,14.19375 L23.6973214,14.19375 L23.6973214,11.0424107 L23.6973214,11.0424107 Z M22.1089286,11.0424107 C22.1089286,12.7767857 20.6919643,14.19375 18.9575893,14.19375 C17.2232143,14.19375 15.80625,12.7767857 15.80625,11.0424107 L15.80625,3.15133929 C15.80625,1.41696429 17.2232143,0 18.9575893,0 C20.6919643,0 22.1089286,1.41696429 22.1089286,3.15133929 L22.1089286,11.0424107 Z M18.9575893,23.6973214 C20.6919643,23.6973214 22.1089286,25.1142857 22.1089286,26.8486607 C22.1089286,28.5830357 20.6919643,30 18.9575893,30 C17.2232143,30 15.80625,28.5830357 15.80625,26.8486607 L15.80625,23.6973214 L18.9575893,23.6973214 Z M18.9575893,22.1089286 C17.2232143,22.1089286 15.80625,20.6919643 15.80625,18.9575893 C15.80625,17.2232143 17.2232143,15.80625 18.9575893,15.80625 L26.8486607,15.80625 C28.5830357,15.80625 30,17.2232143 30,18.9575893 C30,20.6919643 28.5830357,22.1089286 26.8486607,22.1089286 L18.9575893,22.1089286 Z"></path>
            </g>
        </g>
    </g>
</svg>