<svg width="43px" height="30px" viewBox="0 0 43 30" version="1.1" xmlns="http://www.w3.org/2000/svg" xmlns:xlink="http://www.w3.org/1999/xlink"
    <g stroke="none" stroke-width="1" fill="none" fill-rule="evenodd">
        <g transform="translate(-1071.000000, -268.000000)" fill="#000000" fill-rule="nonzero">
            <g transform="translate(1071.000000, 268.000000)">
                <path d="M42.1014733,4.69398437 C41.6069371,2.84632812 40.1498625,1.39117187 38.2998202,0.89734375 C34.9464857,0 21.5,0 21.5,0 C21.5,0 8.05359307,0 4.70017981,0.89734375 C2.85013751,1.39125 1.39306287,2.84632813 0.898526735,4.69398437 C0,8.04296875 0,15.0303125 0,15.0303125 C0,15.0303125 0,22.0176563 0.898526735,25.3666406 C1.39306287,27.2142969 2.85013751,28.6088281 4.70017981,29.1026563 C8.05359307,30 21.5,30 21.5,30 C21.5,30 34.9464069,30 38.2998202,29.1026563 C40.1498625,28.6088281 41.6069371,27.2142969 42.1014733,25.3666406 C43,22.0176562 43,15.0303125 43,15.0303125 C43,15.0303125 43,8.04296875 42.1014733,4.69398437 Z M17.1022423,21.3742969 L17.1022423,8.68632813 L28.3408339,15.0304687 L17.1022423,21.3742969 Z" ></path>
            </g>
        </g>
    </g>
</svg>