<?xml version="1.0" standalone="no"?>
<!DOCTYPE svg PUBLIC "-//W3C//DTD SVG 1.1//EN" "http://www.w3.org/Graphics/SVG/1.1/DTD/svg11.dtd">
<svg xmlns="http://www.w3.org/2000/svg">
<metadata>Generated by Fontastic.me</metadata>
<defs>
<font id="stories" horiz-adv-x="512">
<font-face font-family="stories" units-per-em="512" ascent="480" descent="-32"/>
<missing-glyph horiz-adv-x="512" />

<glyph glyph-name="facebook-messenger" unicode="&#105;" d="M257 480c-127 0-225-92-225-217 0-66 27-122 71-161 7-7 6-11 7-53 0-6 3-11 8-14 5-3 12-4 17-1 48 21 48 22 57 20 138-38 288 51 288 209 0 125-97 217-223 217z m134-167l-66-105c-5-8-13-13-22-15-9-1-19 1-26 6l-53 40c-5 3-11 3-16 0l-71-54c-9-7-22 4-15 14l66 105c5 7 13 13 22 15 9 1 19-1 26-6l53-40c5-3 11-3 16 0l71 54c9 7 22-4 15-14z"/>
<glyph glyph-name="facebook" unicode="&#106;" d="M432 480l-352 0c-27 0-48-21-48-48l0-352c0-27 21-48 48-48l137 0 0 152-63 0 0 72 63 0 0 55c0 62 37 96 94 96 27 0 55-5 55-5l0-61-31 0c-31 0-40-19-40-38l0-47 69 0-11-72-58 0 0-152 137 0c27 0 48 21 48 48l0 352c0 27-21 48-48 48z"/>
<glyph glyph-name="foursquare" unicode="&#107;" d="M395 509l-273 0c-38 0-50-28-50-46l0-434c0-20 12-28 18-30 6-3 23-5 33 7 129 149 131 152 131 152 3 3 4 3 7 3l83 0c36 0 41 25 45 40l48 243c9 42-2 65-42 65z m-16-74l-12-60c-1-6-9-13-16-13l-107 0c-12 0-20-8-20-20l0-13c0-12 8-21 20-21l91 0c8 0 16-9 14-18-1-9-10-54-11-59-1-5-7-13-17-13l-73 0c-14 0-18-2-27-13 0 0-9-11-89-108-1-1-2-1-2 0l0 339c0 8 7 17 16 17l219 0c9 0 16-8 14-18z"/>
<glyph glyph-name="globe" unicode="&#108;" d="M256 512c-141 0-256-115-256-256 0-141 115-256 256-256 141 0 256 115 256 256 0 141-115 256-256 256z m165-222l0-8c0-6-3-11-9-14l-16-8c-5-2-11-2-16 1l-18 13c-5 2-10 3-14 2l-3-1c-10-4-14-16-8-24l13-21c3-4 8-7 14-7l8 0c9 0 16-7 16-16l0-12c0-3-1-7-3-9l-19-26c-2-2-3-4-3-7l-5-23c0-4-2-7-5-9-9-9-18-19-25-30l-14-20c-5-8-14-13-24-13-11 0-21 6-25 16-6 11-9 23-9 36l0 31c0 9-7 16-16 16l-27 0c-15 0-29 6-40 16-10 11-16 25-16 40l0 15c0 18 8 34 22 45l29 21c10 8 22 12 34 12l1 0c8 0 17-2 25-6l15-8c4-2 8-2 12-1l49 16c7 3 11 9 11 16 0 8-7 16-16 16l-10 0c-5 0-9 1-12 4l-7 7c-3 3-7 5-11 5l-93 0c-9 0-16 7-16 16l0 5c0 7 5 13 12 15l15 4c4 1 7 3 9 7l9 12c3 4 8 7 13 7l25 0c9 0 16 7 16 16l0 23c82-14 148-75 167-154l-19 0c-9 0-16-8-16-16z"/>
<glyph glyph-name="instagram" unicode="&#113;" d="M256 371c-63 0-115-51-115-115 0-64 52-115 115-115 64 0 115 51 115 115 0 64-51 115-115 115z m0-190c-41 0-75 34-75 75 0 41 34 75 75 75 41 0 75-34 75-75 0-41-34-75-75-75z m147 195c0-15-12-27-27-27-15 0-27 12-27 27 0 14 12 26 27 26 15 0 27-12 27-26z m76-28c-2 36-10 68-37 94-26 27-58 35-93 37-37 2-148 2-185 0-36-2-68-10-94-37-27-26-35-58-36-93-3-37-3-148 0-185 1-36 9-68 36-94 26-26 58-35 94-36 37-3 148-3 185 0 35 1 67 9 93 36 27 26 35 58 37 94 2 37 2 147 0 184z m-48-224c-8-20-23-35-43-43-29-11-99-9-132-9-32 0-103-2-132 9-20 8-35 23-43 43-11 29-9 99-9 132 0 33-2 103 9 132 8 20 23 35 43 43 30 11 100 9 132 9 33 0 103 2 132-9 20-8 35-23 43-43 12-29 9-99 9-132 0-33 3-103-9-132z"/>
<glyph glyph-name="linkedin" unicode="&#116;" d="M448 480l-384 0c-18 0-32-15-32-32l0-384c0-18 14-32 32-32l384 0c18 0 32 14 32 32l0 384c0 17-14 32-32 32z m-281-384l-66 0 0 214 67 0 0-214z m-33 243c-21 0-38 17-38 38 0 22 17 39 38 39 21 0 39-17 39-39 0-21-17-38-39-38z m282-243l-66 0 0 104c0 25-1 57-35 57-34 0-39-27-39-55l0-106-67 0 0 214 64 0 0-29 1 0c9 16 30 34 63 34 67 0 79-44 79-102z"/>
<glyph glyph-name="reading-time" unicode="&#76;" d="M0 512l394 0 0-79-394 0z m0-158l512 0 0-78-512 0z m0-157l276 0 0-79-276 0z"/>
<glyph glyph-name="search-default" unicode="&#82;" d="M345 140l33 39 134-117-33-39z m-158-27c-103 0-187 84-187 188 0 104 84 188 187 188 103 0 186-84 186-188 0-104-83-188-186-188z m0 49c77 0 139 63 139 140 0 78-62 141-139 141-78 0-140-63-140-141 0-77 62-140 140-140z"/>
<glyph glyph-name="trending" unicode="&#55;" d="M279 487c0 24-30 33-43 13-121-180 51-189 51-276 0-36-28-65-63-64-35 0-62 29-62 65l0 85c0 22-26 32-40 16-27-28-54-76-54-134 0-106 84-192 188-192 104 0 188 86 188 192 0 170-165 192-165 295z"/>
<glyph glyph-name="trending-alt" unicode="&#57;" d="M355 461c-21-20-40-40-56-60-27 37-61 75-98 111-98-91-167-210-167-282 0-127 99-230 222-230 123 0 222 103 222 230 0 54-52 164-123 231z m-20-341c-21-15-48-24-76-24-72 0-130 48-130 125 0 39 24 73 72 131 7-8 98-125 98-125l58 67c4-7 8-14 11-20 28-53 16-119-33-154z"/>
<glyph glyph-name="trending-alt-2" unicode="&#34;" d="M394 352l-117 0 43 130c4 15-7 30-23 30l-146 0c-12 0-22-9-24-21l-32-240c-2-14 9-27 24-27l120 0-47-195c-3-15 9-29 24-29 8 0 17 4 21 12l178 304c9 16-2 36-21 36z"/>
<glyph glyph-name="arrow-thing-right" unicode="&#43;" d="M508 256c-59 61-117 122-176 183l-15-15 152-157-469 0 0-22 469 0-152-157 15-15c59 61 117 122 176 183z"/>
<glyph glyph-name="search-thin" unicode="&#58;" d="M512 36l-168 170c23 32 37 71 37 113 0 106-86 193-191 193-105 0-190-86-190-193 0-106 85-192 190-192 46 0 87 16 120 43l167-169z m-322 135c-80 0-146 67-146 148 0 82 66 149 146 149 81 0 147-67 147-149 0-81-66-148-147-148z"/>
<glyph glyph-name="comment-alt-regular" unicode="&#125;" d="M448 512l-384 0c-35 0-64-29-64-64l0-288c0-35 29-64 64-64l96 0 0-84c0-7 6-12 12-12 2 0 5 1 7 2l125 94 144 0c35 0 64 29 64 64l0 288c0 35-29 64-64 64z m16-352c0-9-7-16-16-16l-160 0-13-10-67-50 0 60-144 0c-9 0-16 7-16 16l0 288c0 9 7 16 16 16l384 0c9 0 16-7 16-16z"/>
<glyph glyph-name="search-thin-creative" unicode="&#98;" d="M320 512c-106 0-192-86-192-192 0-32 8-63 22-90l-133-133 0 0c-11-11-17-25-17-41 0-31 25-56 56-56 16 0 30 6 41 17l0 0 133 133c27-14 58-22 90-22 106 0 192 86 192 192 0 106-86 192-192 192z m-243-475c-5-5-13-9-21-9-15 0-28 13-28 28 0 8 4 15 9 21l0 0 129 129c11-15 25-29 40-40z m243 123c-88 0-160 72-160 160 0 88 72 160 160 160 88 0 160-72 160-160 0-88-72-160-160-160z m0 272c-62 0-112-50-112-112 0-4 4-8 8-8 4 0 8 4 8 8 0 53 43 96 96 96 4 0 8 4 8 8 0 4-4 8-8 8z"/>
</font></defs></svg>
