<svg xmlns="http://www.w3.org/2000/svg" width="85" height="82" viewBox="0 0 85 82">
  <g fill="none" fill-rule="evenodd" transform="translate(1 1)">
    <polygon stroke="#000" points="0 80 83.5 80 74.5 .036 9 .036"/>
    <path stroke="#000" d="M25.6111111,63 C23.9444444,40.3333333 29.3611111,29 41.8611111,29 C54.3611111,29 59.6111111,40.3333333 57.6111111,63"/>
    <circle cx="25.5" cy="15.5" r="2.5" fill="#111"/>
    <circle cx="57.5" cy="15.5" r="2.5" fill="#111"/>
  </g>
</svg>
