<svg width="30px" height="30px" viewBox="0 0 30 30" version="1.1" xmlns="http://www.w3.org/2000/svg" xmlns:xlink="http://www.w3.org/1999/xlink">
    <g stroke="none" stroke-width="1" fill="none" fill-rule="evenodd">
        <g transform="translate(-1343.000000, -162.000000)" fill="#000000" fill-rule="nonzero">
            <g transform="translate(1343.000000, 162.000000)">
                <path d="M26.7857143,0 L3.21428571,0 C1.43973214,0 0,1.43973214 0,3.21428571 L0,26.7857143 C0,28.5602679 1.43973214,30 3.21428571,30 L26.7857143,30 C28.5602679,30 30,28.5602679 30,26.7857143 L30,3.21428571 C30,1.43973214 28.5602679,0 26.7857143,0 Z M24.6428571,16.875 C24.6428571,17.3169643 24.28125,17.6785714 23.8392857,17.6785714 L17.6785714,17.6785714 L17.6785714,23.8392857 C17.6785714,24.28125 17.3169643,24.6428571 16.875,24.6428571 L13.125,24.6428571 C12.6830357,24.6428571 12.3214286,24.28125 12.3214286,23.8392857 L12.3214286,17.6785714 L6.16071429,17.6785714 C5.71875,17.6785714 5.35714286,17.3169643 5.35714286,16.875 L5.35714286,13.125 C5.35714286,12.6830357 5.71875,12.3214286 6.16071429,12.3214286 L12.3214286,12.3214286 L12.3214286,6.16071429 C12.3214286,5.71875 12.6830357,5.35714286 13.125,5.35714286 L16.875,5.35714286 C17.3169643,5.35714286 17.6785714,5.71875 17.6785714,6.16071429 L17.6785714,12.3214286 L23.8392857,12.3214286 C24.28125,12.3214286 24.6428571,12.6830357 24.6428571,13.125 L24.6428571,16.875 Z"></path>
            </g>
        </g>
    </g>
</svg>