<svg width="26px" height="30px" viewBox="0 0 26 30" version="1.1" xmlns="http://www.w3.org/2000/svg" xmlns:xlink="http://www.w3.org/1999/xlink">
    <g stroke="none" stroke-width="1" fill="none" fill-rule="evenodd">
        <g transform="translate(-779.000000, -162.000000)" fill="#000000" fill-rule="nonzero">
            <g transform="translate(779.000000, 162.000000)">
                <path d="M15.520433,28.6267383 C15.2219554,29.7406055 14.0944375,30 13,30 C11.9056205,30 10.7780446,29.7406055 10.479625,28.6267383 C10.035942,26.9609766 9.28571429,22.7869922 9.28571429,20.8447266 C9.28571429,18.7848047 11.0930625,18.28125 13,18.28125 C14.9069375,18.28125 16.7142857,18.7848047 16.7142857,20.8447266 C16.7142857,22.775332 15.967308,26.9489648 15.520433,28.6267383 Z M9.10388839,16.9074609 C8.01902679,15.8347266 7.36525446,14.3191992 7.43338839,12.6536133 C7.55259375,9.74009766 9.8938125,7.38275391 12.7798705,7.26996094 C15.9518125,7.14597656 18.5714286,9.71525391 18.5714286,12.890625 C18.5714286,14.4625195 17.9293214,15.8857031 16.8961696,16.9073437 C16.7409241,17.0608594 16.7568259,17.3166797 16.9326161,17.4456445 C17.4730446,17.8420312 17.8878839,18.3446484 18.1649464,18.9317578 C18.2659866,19.1458594 18.5420045,19.2048047 18.7133259,19.0425586 C20.3862634,17.4580078 21.4150625,15.1880859 21.3545893,12.6813281 C21.246933,8.21613281 17.663808,4.58320313 13.2416027,4.45658203 C8.52364732,4.32146484 4.64285714,8.15712891 4.64285714,12.890625 C4.64285714,15.3141211 5.66033929,17.5019531 7.28638393,19.0423242 C7.45776339,19.2046875 7.73389732,19.1460352 7.83499554,18.9317578 C8.11205804,18.3445898 8.52695536,17.8420312 9.06738393,17.4456445 C9.24317411,17.3167383 9.25913393,17.060918 9.10388839,16.9074609 L9.10388839,16.9074609 Z M13,0 C5.81541071,0 0,5.87021484 0,13.125 C0,18.3979688 3.05279464,22.8308789 7.29735268,24.92625 C7.54882143,25.0503516 7.83516964,24.8357813 7.7926875,24.5565234 C7.65444643,23.6476172 7.54069643,22.7432812 7.47894643,21.9585352 C7.47047321,21.850957 7.41226339,21.7542773 7.32352679,21.6941602 C4.57263393,19.8305273 2.76400893,16.6541602 2.78588839,13.0605469 C2.82024554,7.42166016 7.38754018,2.82726563 12.9728393,2.81255859 C18.6174509,2.79767578 23.2142857,7.42951172 23.2142857,13.125 C23.2142857,16.7538281 21.3479732,19.9505859 18.5337054,21.789082 C18.4757277,22.6115625 18.3555938,23.5813477 18.2073125,24.5564648 C18.1648304,24.8357813 18.4512366,25.0503516 18.7026473,24.9261914 C22.9372812,22.8355664 26,18.4093945 26,13.125 C26,5.87138672 20.185692,0 13,0 Z M13,9.375 C10.9486696,9.375 9.28571429,11.0539453 9.28571429,13.125 C9.28571429,15.1960547 10.9486696,16.875 13,16.875 C15.0513304,16.875 16.7142857,15.1960547 16.7142857,13.125 C16.7142857,11.0539453 15.0513304,9.375 13,9.375 Z" ></path>
            </g>
        </g>
    </g>
</svg>