<svg xmlns="http://www.w3.org/2000/svg" width="13" height="10" viewBox="0 0 13 10">
  <g opacity=".7">
    <rect width="10" height="2"/>
    <rect width="13" height="2" y="4"/>
    <rect width="7" height="2" y="8"/>
  </g>
</svg>
