<svg width="31px" height="30px" viewBox="0 0 31 30" version="1.1" xmlns="http://www.w3.org/2000/svg" xmlns:xlink="http://www.w3.org/1999/xlink">
    <g stroke="none" stroke-width="1" fill="none" fill-rule="evenodd">
        <g transform="translate(-870.000000, -162.000000)" fill="#000000" fill-rule="nonzero">
            <g transform="translate(870.000000, 162.000000)">
                <path d="M13.8401119,1.09727626 L10.0634328,8.82490272 L1.6136194,10.0680934 C0.0983208955,10.2898833 -0.508955224,12.1750973 0.589925373,13.2548638 L6.70317164,19.266537 L5.25727612,27.7587549 C4.99701493,29.2937743 6.59906716,30.4435798 7.94085821,29.7256809 L15.5,25.7159533 L23.0591418,29.7256809 C24.4009328,30.4377432 26.0029851,29.2937743 25.7427239,27.7587549 L24.2968284,19.266537 L30.4100746,13.2548638 C31.5089552,12.1750973 30.9016791,10.2898833 29.3863806,10.0680934 L20.9365672,8.82490272 L17.1598881,1.09727626 C16.483209,-0.280155642 14.5225746,-0.29766537 13.8401119,1.09727626 Z" ></path>
            </g>
        </g>
    </g>
</svg>