<svg width="22px" height="30px" viewBox="0 0 22 30" version="1.1" xmlns="http://www.w3.org/2000/svg" xmlns:xlink="http://www.w3.org/1999/xlink">
    <g stroke="none" stroke-width="1" fill="none" fill-rule="evenodd">
        <g transform="translate(-1699.000000, -160.000000)" fill="#000000" fill-rule="nonzero">
            <g transform="translate(1699.000000, 160.000000)">
                <path d="M12.375,1.45380117 C12.375,0.0619883041 10.6190104,-0.462573099 9.84557292,0.69122807 C2.75,11.2777778 12.8333333,11.754386 12.8333333,16.9005848 C12.8333333,18.9842105 11.1655729,20.6701754 9.11796875,20.6426901 C7.10302083,20.6163743 5.5,18.9017544 5.5,16.8450292 L5.5,11.8444444 C5.5,10.5754386 3.98348958,9.95964912 3.12640625,10.8795322 C1.59270833,12.5239766 0,15.3409357 0,18.7719298 C0,24.9631579 4.93453125,30 11,30 C17.0654688,30 22,24.9631579 22,18.7719298 C22,8.81345029 12.375,7.48538012 12.375,1.45380117 Z"></path>
            </g>
        </g>
    </g>
</svg>